[
  {
    "name": "id",
    "title": "",
    "type": "number",
    "visible": false,
    "filterable": false
  },
  {
    "name": "codigo",
    "title": "Código"
  },
  {
    "name": "origem",
    "title": "Origem",
    "breakpoints": "xs sm",
    "style": {
      "maxWidth": 200,
      "textOverflow": "ellipsis"
    }
  },
  {
    "name": "destino",
    "title": "Destino",
    "breakpoints": "xs sm",
    "style": {
      "maxWidth": 200,
      "textOverflow": "ellipsis"
    }
  },
  {
    "name": "status",
    "title": "Status"
  },
  {
    "name": "tipo",
    "title": "Tipo"
  },
  {
    "name": "lotacao_atual",
    "title": "Lotação Atual",
    "breakpoints": "all"
  },
  {
    "name": "responsavel",
    "title": "Responsável",
    "breakpoints": "all"
  },
  {
    "name": "data",
    "title": "Data Cadastro",
    "breakpoints": "all",
    "type": "date",
    "formatString": "DD/MM/YYYY"
  },
  {
    "name": "prazo",
    "title": "Prazo",
    "breakpoints": "all",
    "type": "date",
    "formatString": "DD/MM/YYYY"
  },
  {
    "name": "patrimonio",
    "title": "Patrimônio",
    "breakpoints": "all",
    "sortable": false
  },
  {
    "name": "botao_movimentacao",
    "title": "",
    "sorteable": false
  }
]